---
http_interactions:
- request:
    method: get
    uri: https://api.bestbuy.com/v1/products(longDescription=sennheiser*%7Csku=7619002)?apiKey=pr68afecws2rqzs6nppydn5f&facet=salePrice&format=json&page=5&pageSize=15&show=customerReviewAverage,shortDescription,image,name,sku,salePrice
    body:
      encoding: US-ASCII
      string: ''
    headers:
      User-Agent:
      - Faraday v0.9.2
      Accept-Encoding:
      - gzip;q=1.0,deflate;q=0.6,identity;q=0.3
      Accept:
      - "*/*"
  response:
    status:
      code: 200
      message: OK
    headers:
      X-Mashery-Responder:
      - prod-j-worker-lax-03.mashery.com
      Content-Type:
      - application/json; charset=UTF-8
      Content-Length:
      - '7403'
      Server:
      - thin 1.6.1 codename Death Proof
      Date:
      - Tue, 08 Mar 2016 18:20:05 GMT
      Connection:
      - close
    body:
      encoding: UTF-8
      string: |-
        {
          "from": 61,
          "to": 75,
          "total": 132,
          "currentPage": 5,
          "totalPages": 9,
          "queryTime": "0.011",
          "totalTime": "0.051",
          "partial": false,
          "canonicalUrl": "/v1/products(longDescription=\"sennheiser*\"|sku=7619002)?show=customerReviewAverage,shortDescription,image,name,sku,salePrice&page=5&format=json&facet=salePrice,10&apiKey=pr68afecws2rqzs6nppydn5f",
          "products": [
            {
              "customerReviewAverage": null,
              "shortDescription": "Sound isolation; dynamic, closed transducers; in-line remote and microphone; folding design; stainless-steel construction with leather headband and ear pads",
              "image": "http://images.bestbuy.com/BestBuy_US/images/products/8420/8420027_sa.jpg",
              "name": "Sennheiser - Momentum Around-Ear Headphones - Brown Metallic",
              "sku": 8420027,
              "salePrice": 349.98
            },
            {
              "customerReviewAverage": "5.0",
              "shortDescription": "Stainless steel acoustic pipes; sound isolating; dynamic speaker system; 3-button in-line remote; in-line microphone; tangle-free cable; includes carrying case",
              "image": "http://images.bestbuy.com/BestBuy_US/images/products/4434/4434003_sa.jpg",
              "name": "Sennheiser - MOMENTUM Earbud Headphones - Black Chrome",
              "sku": 4434003,
              "salePrice": 99.98
            },
            {
              "customerReviewAverage": "4.6",
              "shortDescription": "Proprietary transducer technology; sound isolation; noise cancellation; stainless steel acoustic pipes; 3-button in-line remote and microphone for Apple&#174; iOS devices; tangle-resistant cable",
              "image": "http://images.bestbuy.com/BestBuy_US/images/products/4433/4433401_sa.jpg",
              "name": "Sennheiser - MOMENTUM Earbud Headphones - Black Chrome",
              "sku": 4433401,
              "salePrice": 99.98
            },
            {
              "customerReviewAverage": "4.8",
              "shortDescription": "SENNHEISER MOMENTUM Earbud Headphones: Ambient noise attenuation; dynamic transducers; custom-machined stainless-steel acoustic pipe; 3-button in-line remote with integrated omnidirectional microphone; 4 ear adapter sizes; 4.3' elliptical cable",
              "image": "http://images.bestbuy.com/BestBuy_US/images/products/9068/9068329_sa.jpg",
              "name": "Sennheiser - MOMENTUM Earbud Headphones - Multi",
              "sku": 9068329,
              "salePrice": 99.95
            },
            {
              "customerReviewAverage": "4.4",
              "shortDescription": "SENNHEISER MOMENTUM Earbud Headphones: Custom-machined stainless-steel acoustic pipe; dynamic speaker system; 3-button in-line remote with integrated microphone; 2-tone, elliptical cable; includes 4 sizes of ear adapters",
              "image": "http://images.bestbuy.com/BestBuy_US/images/products/9068/9068301_sa.jpg",
              "name": "Sennheiser - MOMENTUM Earbud Headphones - Multi",
              "sku": 9068301,
              "salePrice": 99.95
            },
            {
              "customerReviewAverage": null,
              "shortDescription": "Sound isolating; dynamic drivers and neodymium magnets; up to 18 hours of use between charges",
              "image": "http://images.bestbuy.com/BestBuy_US/images/products/3427/3427044_sa.jpg",
              "name": "Sennheiser - Over-the-Ear Accessory Headphones for RS-165 Headphone Systems - Black",
              "sku": 3427044,
              "salePrice": 139.98
            },
            {
              "customerReviewAverage": null,
              "shortDescription": "Sound isolating; dynamic drivers and neodymium magnets; up to 18 hours of use between charges",
              "image": "http://images.bestbuy.com/BestBuy_US/images/products/3427/3427035_sa.jpg",
              "name": "Sennheiser - Over-the-Ear Accessory Headphones for RS-175 Headphone Systems - Black",
              "sku": 3427035,
              "salePrice": 169.98
            },
            {
              "customerReviewAverage": "2.0",
              "shortDescription": "Dynamic open drivers and neodymium magnets; up to 18 hours of use between charges",
              "image": "http://images.bestbuy.com/BestBuy_US/images/products/3427/3427053_sa.jpg",
              "name": "Sennheiser - Over-the-Ear Accessory Headphones for RS-185 Headphone Systems - Black",
              "sku": 3427053,
              "salePrice": 199.98
            },
            {
              "customerReviewAverage": "1.0",
              "shortDescription": "From our expanded online assortment; noise-canceling microphone; game and chat controls; open acoustic ear cups; sound isolating; 16mm drivers; neodymium magnets",
              "image": "http://images.bestbuy.com/BestBuy_US/images/products/5660/5660151_sa.jpg",
              "name": "Sennheiser - Over-the-Ear Gaming Headset - Black",
              "sku": 5660151,
              "salePrice": 59.99
            },
            {
              "customerReviewAverage": "5.0",
              "shortDescription": "Up to 98' wireless range; sound isolating; dynamic drivers with neodymium magnets; adjustable headband; includes multireceiver transmitter with support for up to 2 pair of headphones simultaneously",
              "image": "http://images.bestbuy.com/BestBuy_US/images/products/3427/3427026_sa.jpg",
              "name": "Sennheiser - Over-the-Ear Headphone System - Black",
              "sku": 3427026,
              "salePrice": 219.98
            },
            {
              "customerReviewAverage": null,
              "shortDescription": "SENNHEISER Over-the-Ear Headphones: Transducer technology; sound isolating; neodymium magnets; detachable cable with in-line remote and microphone; optimized for Android devices",
              "image": "http://images.bestbuy.com/BestBuy_US/images/products/4555/4555900_sa.jpg",
              "name": "Sennheiser - Over-the-Ear Headphones - Black",
              "sku": 4555900,
              "salePrice": 109.99
            },
            {
              "customerReviewAverage": null,
              "shortDescription": "SENNHEISER Over-the-Ear Headphones: Transducer technology; sound isolating; neodymium magnets; in-line remote and microphone; optimized for Android devices",
              "image": "http://images.bestbuy.com/BestBuy_US/images/products/4555/4555600_sa.jpg",
              "name": "Sennheiser - Over-the-Ear Headphones - Black",
              "sku": 4555600,
              "salePrice": 89.99
            },
            {
              "customerReviewAverage": null,
              "shortDescription": "SENNHEISER Over-the-Ear Headphones: Transducer technology; sound isolating; neodymium magnets; in-line remote and microphone; optimized for Apple&#174; iOS devices",
              "image": "http://images.bestbuy.com/BestBuy_US/images/products/4555/4555500_sa.jpg",
              "name": "Sennheiser - Over-the-Ear Headphones - Black",
              "sku": 4555500,
              "salePrice": 89.99
            },
            {
              "customerReviewAverage": null,
              "shortDescription": "SENNHEISER Over-the-Ear Headphones: Transducer technology; sound isolating; neodymium magnets; detachable cable with in-line remote and microphone; optimized for Apple&#174; iOS devices",
              "image": "http://images.bestbuy.com/BestBuy_US/images/products/4555/4555700_sa.jpg",
              "name": "Sennheiser - Over-the-Ear Headphones - Black",
              "sku": 4555700,
              "salePrice": 109.99
            },
            {
              "customerReviewAverage": "4.5",
              "shortDescription": "From our expanded online assortment; E.A.R. technology; twist-n-lock cable; DuoFol diaphragms; neodymium ferrous magnets",
              "image": "http://images.bestbuy.com/BestBuy_US/images/products/1700/1700568_sa.jpg",
              "name": "Sennheiser - Over-the-Ear Headphones - Brown",
              "sku": 1700568,
              "salePrice": 153.99
            }
          ],
          "facets": {
            "salePrice": {
              "179.95": 8,
              "139.95": 7,
              "199.95": 5,
              "229.98": 5,
              "349.98": 5,
              "54.95": 4,
              "89.95": 4,
              "109.95": 4,
              "399.99": 4,
              "449.99": 4
            }
          }
        }
    http_version: 
  recorded_at: Tue, 08 Mar 2016 18:20:05 GMT
recorded_with: VCR 3.0.1
