---
http_interactions:
- request:
    method: get
    uri: https://api.bestbuy.com/v1/products(longDescription=sennheiser%20headphones*%7Csku=7619002)?apiKey=pr68afecws2rqzs6nppydn5f&facet=salePrice&format=json&page=5&pageSize=15&show=customerReviewAverage,shortDescription,image,name,sku,salePrice
    body:
      encoding: US-ASCII
      string: ''
    headers:
      User-Agent:
      - Faraday v0.9.2
      Accept-Encoding:
      - gzip;q=1.0,deflate;q=0.6,identity;q=0.3
      Accept:
      - "*/*"
  response:
    status:
      code: 200
      message: OK
    headers:
      X-Mashery-Responder:
      - prod-j-worker-lax-04.mashery.com
      Content-Type:
      - application/json; charset=UTF-8
      Content-Length:
      - '7318'
      Server:
      - thin 1.6.1 codename Death Proof
      Date:
      - Tue, 08 Mar 2016 18:44:22 GMT
      Connection:
      - close
    body:
      encoding: UTF-8
      string: |-
        {
          "from": 61,
          "to": 75,
          "total": 75,
          "currentPage": 5,
          "totalPages": 5,
          "queryTime": "0.006",
          "totalTime": "0.044",
          "partial": false,
          "canonicalUrl": "/v1/products(longDescription=\"sennheiser headphones*\"|sku=7619002)?show=customerReviewAverage,shortDescription,image,name,sku,salePrice&page=5&format=json&facet=salePrice,10&apiKey=pr68afecws2rqzs6nppydn5f",
          "products": [
            {
              "customerReviewAverage": "4.8",
              "shortDescription": "SENNHEISER URBANITE On-Ear Headphones: Metal components; foldable design; omnidirectional microphone; in-line remote",
              "image": "http://images.bestbuy.com/BestBuy_US/images/products/9470/9470273_sa.jpg",
              "name": "Sennheiser - URBANITE On-Ear Headphones - Denim",
              "sku": 9470273,
              "salePrice": 139.95
            },
            {
              "customerReviewAverage": "4.8",
              "shortDescription": "SENNHEISER URBANITE On-Ear Headphones: Metal components; foldable design; omnidirectional microphone; in-line remote",
              "image": "http://img.bbystatic.com/BestBuy_US/images/products/9470/9470159_rc.jpg",
              "name": "Sennheiser - URBANITE On-Ear Headphones - Denim Galaxy",
              "sku": 9470159,
              "salePrice": 139.95
            },
            {
              "customerReviewAverage": "4.8",
              "shortDescription": "SENNHEISER URBANITE On-Ear Headphones: Metal components; foldable design; omnidirectional microphone; in-line remote",
              "image": "http://img.bbystatic.com/BestBuy_US/images/products/9470/9470177_rc.jpg",
              "name": "Sennheiser - URBANITE On-Ear Headphones - Nation",
              "sku": 9470177,
              "salePrice": 139.95
            },
            {
              "customerReviewAverage": "4.8",
              "shortDescription": "SENNHEISER URBANITE On-Ear Headphones: Metal components; foldable design; omnidirectional microphone; in-line remote",
              "image": "http://img.bbystatic.com/BestBuy_US/images/products/9470/9470246_rc.jpg",
              "name": "Sennheiser - URBANITE On-Ear Headphones - Plum",
              "sku": 9470246,
              "salePrice": 139.95
            },
            {
              "customerReviewAverage": "4.8",
              "shortDescription": "SENNHEISER URBANITE On-Ear Headphones: Metal components; foldable design; omnidirectional microphone; in-line remote",
              "image": "http://img.bbystatic.com/BestBuy_US/images/products/9470/9470219_rc.jpg",
              "name": "Sennheiser - URBANITE On-Ear Headphones - Sand",
              "sku": 9470219,
              "salePrice": 139.95
            },
            {
              "customerReviewAverage": "5.0",
              "shortDescription": "SENNHEISER URBANITE XL Over-the-Ear Headphones: In-line microphone and remote; extra-large ear pads; folding design; 3.9' cable; low-profile 3.5mm plug; metal components; urban design",
              "image": "http://img.bbystatic.com/BestBuy_US/images/products/9470/9470291_rc.jpg",
              "name": "Sennheiser - URBANITE XL Over-the-Ear Headphones - Black",
              "sku": 9470291,
              "salePrice": 179.95
            },
            {
              "customerReviewAverage": null,
              "shortDescription": "SENNHEISER URBANITE XL Over-the-Ear Headphones: In-line microphone and remote; extra-large ear pads; folding design; 3.9' cable; low-profile 3.5mm plug; metal components; urban design",
              "image": "http://img.bbystatic.com/BestBuy_US/images/products/9470/9470168_rc.jpg",
              "name": "Sennheiser - URBANITE XL Over-the-Ear Headphones - Black Galaxy",
              "sku": 9470168,
              "salePrice": 179.95
            },
            {
              "customerReviewAverage": null,
              "shortDescription": "SENNHEISER URBANITE XL Over-the-Ear Headphones: In-line microphone and remote; extra-large ear pads; folding design; 3.9' cable; low-profile 3.5mm plug; metal components; urban design",
              "image": "http://img.bbystatic.com/BestBuy_US/images/products/9470/9470237_rc.jpg",
              "name": "Sennheiser - URBANITE XL Over-the-Ear Headphones - Denim",
              "sku": 9470237,
              "salePrice": 179.95
            },
            {
              "customerReviewAverage": null,
              "shortDescription": "SENNHEISER URBANITE XL Over-the-Ear Headphones: In-line microphone and remote; extra-large ear pads; folding design; 3.9' cable; low-profile 3.5mm plug; metal components; urban design",
              "image": "http://images.bestbuy.com/BestBuy_US/images/products/9470/9470186_sa.jpg",
              "name": "Sennheiser - URBANITE XL Over-the-Ear Headphones - Denim Galaxy",
              "sku": 9470186,
              "salePrice": 99.99
            },
            {
              "customerReviewAverage": null,
              "shortDescription": "SENNHEISER URBANITE XL Over-the-Ear Headphones: In-line microphone and remote; extra-large ear pads; folding design; 3.9' cable; low-profile 3.5mm plug; metal components; urban design",
              "image": "http://img.bbystatic.com/BestBuy_US/images/products/9470/9470195_rc.jpg",
              "name": "Sennheiser - URBANITE XL Over-the-Ear Headphones - Nation",
              "sku": 9470195,
              "salePrice": 179.95
            },
            {
              "customerReviewAverage": null,
              "shortDescription": "SENNHEISER URBANITE XL Over-the-Ear Headphones: In-line microphone and remote; extra-large ear pads; folding design; 3.9' cable; low-profile 3.5mm plug; metal components; urban design",
              "image": "http://images.bestbuy.com/BestBuy_US/images/products/9470/9470282_sa.jpg",
              "name": "Sennheiser - URBANITE XL Over-the-Ear Headphones - Olive",
              "sku": 9470282,
              "salePrice": 179.95
            },
            {
              "customerReviewAverage": null,
              "shortDescription": "SENNHEISER URBANITE XL Over-the-Ear Headphones: In-line microphone and remote; extra-large ear pads; folding design; 3.9' cable; low-profile 3.5mm plug; metal components; urban design",
              "image": "http://img.bbystatic.com/BestBuy_US/images/products/9470/9470255_rc.jpg",
              "name": "Sennheiser - URBANITE XL Over-the-Ear Headphones - Sand",
              "sku": 9470255,
              "salePrice": 179.95
            },
            {
              "customerReviewAverage": "4.5",
              "shortDescription": "Up to 32' wireless range; sound isolating; Bluetooth 4.0; NFC-enabled; cable with in-line control and microphone; up to 25 hours of use between charges; touch control panel",
              "image": "http://images.bestbuy.com/BestBuy_US/images/products/3427/3427062_sa.jpg",
              "name": "Sennheiser - Urbanite XL Wireless Over-the-Ear Headphones - Black",
              "sku": 3427062,
              "salePrice": 299.98
            },
            {
              "customerReviewAverage": "3.9",
              "shortDescription": "Compatible with Sennheiser RS120 charger (not included); 2 rechargeable AAA NiMH batteries",
              "image": "http://img.bbystatic.com/BestBuy_US/images/products/8673/8673223_rc.jpg",
              "name": "Sennheiser - Wireless On-Ear Accessory Headphones for the RS120 Wireless System - Black",
              "sku": 8673223,
              "salePrice": 79.99
            },
            {
              "customerReviewAverage": "3.3",
              "shortDescription": "Wireless range up to 328'; dynamic transducers; neodymium magnets; ALC (automatic level control) and MLC (manual level control); balance controls; ergonomic design",
              "image": "http://img.bbystatic.com/BestBuy_US/images/products/3304/3304028_sa.jpg",
              "name": "Sennheiser - Wireless Over-the-Ear Headphones - Black",
              "sku": 3304028,
              "salePrice": 399.98
            }
          ],
          "facets": {
            "salePrice": {
              "139.95": 7,
              "179.95": 6,
              "54.95": 5,
              "229.98": 5,
              "349.98": 5,
              "89.95": 4,
              "109.95": 4,
              "399.98": 3,
              "499.98": 3,
              "44.95": 2
            }
          }
        }
    http_version: 
  recorded_at: Tue, 08 Mar 2016 18:44:23 GMT
recorded_with: VCR 3.0.1
